{
   "assembly" : {
      "name" : "Hmel1",
      "date" : "2012-02",
      "gc_percent" : "32.83",
      "n" : "4133997",
      "accession" : "GCA_000313835.1",
      "atgc" : "269652191",
      "scaffold_count" : "4309",
      "span" : "273786188"
   },
   "provider" : {
      "name" : "Heliconius Genome Consortium",
      "url" : "http://www.heliconius.org/category/genomics/"
   },
   "genebuild" : {
      "cds_count" : "12829",
      "version" : "2012-03-HGC",
      "gene_count" : "16203",
      "method" : "Generated using MAKER",
      "start_date" : "2012-03-HGC",
      "transcript_count" : "16363",
      "exon_count" : "95271"
   },
   "species" : {
      "scientific_name" : "Heliconius melpomene",
      "taxonomy_id" : "34740",
      "common_name" : "postman butterfly",
      "display_name" : "Heliconius melpomene"
   }
}

