{
   "assembly" : {
      "cegma_partial" : "86.29",
      "scaffold_count" : "8261",
      "n" : "28922106",
      "atgc" : "360985414",
      "span" : "389907520",
      "gc_percent" : "32.56",
      "accession" : "GCA_000716385.1",
      "cegma_complete" : "68.55",
      "name" : "MelCinx1.0",
      "date" : null
   },
   "genebuild" : {
      "version" : "Mcin_v1.1",
      "gene_count" : "16751",
      "transcript_count" : "16790",
      "method" : "import",
      "cds_count" : "16668",
      "exon_count" : "101906",
      "start_date" : "2015-04-GFBGP"
   },
   "species" : {
      "display_name" : "Melitaea cinxia",
      "common_name" : "Glanville fritillary",
      "taxonomy_id" : "113334",
      "scientific_name" : "Melitaea cinxia"
   },
   "provider" : {
      "name" : "Glanville fritillary butterfly genome project",
      "url" : "http://www.helsinki.fi/science/metapop/research/mcgenome.html"
   }
}

